fpga/.Xil/Vivado-18704-DESKTOP-355QV49/hw_ila_data_1/zip_work/waveform.vcd
$date
        2024-Mar-03 14:07:57
$end
$version
        Vivado v2017.4 (64-bit)
$end
$timescale
        1ps
$end
$scope module dut $end
$var reg 32 " u_top/u_uart/uart_baud [31:0] $end
$var reg 32 B u_top/u_uart/uart_status [31:0] $end
$var reg 8 b u_top/u_uart/tx_data [7:0] $end
$var reg 32 j u_top/u_uart/uart_ctrl [31:0] $end
$var reg 4 ," u_top/u_uart/state [3:0] $end
$var reg 32 0" u_top/u_uart/uart_rx [31:0] $end
$var reg 32 P" u_top/u_uart_debug/mem_addr_o [31:0] $end
$var reg 14 p" u_top/u_uart_debug/state [13:0] $end
$var reg 32 ~" u_top/u_uart_debug/mem_wdata_o [31:0] $end
$var reg 32 @# u_ila_0_m1_rdata [31:0] $end
$var reg 32 `# u_top/m0_rdata [31:0] $end
$var reg 32 "$ u_top/m0_addr [31:0] $end
$var reg 3 B$ u_top/m1_size [2:0] $end
$var reg 28 E$ u_top/m1_addr [27:0] $end
$var reg 4 a$ u_ila_0_m1_addr [31:28] $end
$var reg 32 e$ u_top/m1_wdata [31:0] $end
$var reg 8 '% debug_en_r [7:0] $end
$var reg 32 /% timer_cnt [31:0] $end
$var reg 1 O% debug_en_w $end
$var reg 1 P% u_ila_0_m1_rd $end
$var reg 1 Q% u_top/m1_we $end
$var reg 1 R% u_top/u_uart_debug/mem_rd_o $end
$var reg 1 S% u_top/u_uart_debug/mem_we_o $end
$var reg 1 T% u_top/u_uart/rx_done $end
$var reg 1 U% u_top/u_uart/rx_start $end
$var reg 1 V% _TRIGGER $end
$var reg 1 W% _WINDOW $end
$var reg 1 X% _GAP $end
$upscope $end
$enddefinitions $end
#0
$dumpvars
b10101101 "
b0 B
b0 b
b11 j
b1 ,"
b0 0"
b110000000000000000000000000100 P"
b10000 p"
b0 ~"
b0 @#
b0 `#
b10010000000000000000000000000000 "$
b100 B$
b100 E$
b11 a$
b0 e$
b11111111 '%
b1000111111101011100111001 /%
1O%
1P%
0Q%
1R%
0S%
0T%
0U%
0V%
1W%
0X%
$end
#1
b1000111111101011100111010 /%
#2
b1000111111101011100111011 /%
#3
b1000111111101011100111100 /%
#4
b1000111111101011100111101 /%
#5
b1000111111101011100111110 /%
#6
b1000111111101011100111111 /%
#7
b1000111111101011101000000 /%
#8
b1000111111101011101000001 /%
#9
b1000111111101011101000010 /%
#10
b1000111111101011101000011 /%
#11
b1000111111101011101000100 /%
#12
b1000111111101011101000101 /%
#13
b1000111111101011101000110 /%
#14
b1000111111101011101000111 /%
#15
b1000111111101011101001000 /%
#16
b1000111111101011101001001 /%
#17
b1000111111101011101001010 /%
#18
b1000111111101011101001011 /%
#19
b1000111111101011101001100 /%
#20
b1000111111101011101001101 /%
#21
b1000111111101011101001110 /%
#22
b1000111111101011101001111 /%
#23
b1000111111101011101010000 /%
#24
b1000111111101011101010001 /%
#25
b1000111111101011101010010 /%
#26
b1000111111101011101010011 /%
#27
b1000111111101011101010100 /%
#28
b1000111111101011101010101 /%
#29
b1000111111101011101010110 /%
#30
b1000111111101011101010111 /%
#31
b1000111111101011101011000 /%
#32
b1000111111101011101011001 /%
#33
b1000111111101011101011010 /%
#34
b1000111111101011101011011 /%
#35
b1000111111101011101011100 /%
#36
b1000111111101011101011101 /%
#37
b1000111111101011101011110 /%
#38
b1000111111101011101011111 /%
#39
b1000111111101011101100000 /%
#40
b1000111111101011101100001 /%
#41
b1000111111101011101100010 /%
#42
b1000111111101011101100011 /%
#43
b1000111111101011101100100 /%
#44
b1000111111101011101100101 /%
#45
b1000111111101011101100110 /%
#46
b1000111111101011101100111 /%
#47
b1000111111101011101101000 /%
#48
b1000111111101011101101001 /%
#49
b1000111111101011101101010 /%
#50
b1000111111101011101101011 /%
#51
b1000111111101011101101100 /%
#52
b1000111111101011101101101 /%
#53
b1000111111101011101101110 /%
#54
b1000111111101011101101111 /%
#55
b1000111111101011101110000 /%
#56
b1000111111101011101110001 /%
#57
b1000111111101011101110010 /%
#58
b1000111111101011101110011 /%
#59
b1000111111101011101110100 /%
#60
b1000111111101011101110101 /%
#61
b1000111111101011101110110 /%
#62
b1000111111101011101110111 /%
#63
b1000111111101011101111000 /%
#64
b1000111111101011101111001 /%
#65
b1000111111101011101111010 /%
#66
b1000111111101011101111011 /%
#67
b1000111111101011101111100 /%
#68
b1000111111101011101111101 /%
#69
b1000111111101011101111110 /%
#70
b1000111111101011101111111 /%
#71
b1000111111101011110000000 /%
#72
b1000111111101011110000001 /%
#73
b1000111111101011110000010 /%
#74
b1000111111101011110000011 /%
#75
b1000111111101011110000100 /%
#76
b1000111111101011110000101 /%
#77
b1000111111101011110000110 /%
#78
b1000111111101011110000111 /%
#79
b1000111111101011110001000 /%
#80
b1000111111101011110001001 /%
#81
b1000111111101011110001010 /%
#82
b1000111111101011110001011 /%
#83
b1000111111101011110001100 /%
#84
b1000111111101011110001101 /%
#85
b1000111111101011110001110 /%
#86
b1000111111101011110001111 /%
#87
b1000111111101011110010000 /%
#88
b1000111111101011110010001 /%
#89
b1000111111101011110010010 /%
#90
b1000111111101011110010011 /%
#91
b1000111111101011110010100 /%
#92
b1000111111101011110010101 /%
#93
b1000111111101011110010110 /%
#94
b1000111111101011110010111 /%
#95
b1000111111101011110011000 /%
#96
b1000111111101011110011001 /%
#97
b1000111111101011110011010 /%
#98
b1000111111101011110011011 /%
#99
b1000111111101011110011100 /%
#100
b1000111111101011110011101 /%
#101
b1000111111101011110011110 /%
#102
b1000111111101011110011111 /%
#103
b1000111111101011110100000 /%
#104
b1000111111101011110100001 /%
#105
b1000111111101011110100010 /%
#106
b1000111111101011110100011 /%
#107
b1000111111101011110100100 /%
#108
b1000111111101011110100101 /%
#109
b1000111111101011110100110 /%
#110
b1000111111101011110100111 /%
#111
b1000111111101011110101000 /%
#112
b1000111111101011110101001 /%
#113
b1000111111101011110101010 /%
#114
b1000111111101011110101011 /%
#115
b1000111111101011110101100 /%
#116
b1000111111101011110101101 /%
#117
b1000111111101011110101110 /%
#118
b1000111111101011110101111 /%
#119
b1000111111101011110110000 /%
#120
b1000111111101011110110001 /%
#121
b1000111111101011110110010 /%
#122
b1000111111101011110110011 /%
#123
b1000111111101011110110100 /%
#124
b1000111111101011110110101 /%
#125
b1000111111101011110110110 /%
#126
b1000111111101011110110111 /%
#127
b1000111111101011110111000 /%
#128
b1000111111101011110111001 /%
#129
b1000111111101011110111010 /%
#130
b1000111111101011110111011 /%
#131
b1000111111101011110111100 /%
#132
b1000111111101011110111101 /%
#133
b1000111111101011110111110 /%
#134
b1000111111101011110111111 /%
#135
b1000111111101011111000000 /%
#136
b1000111111101011111000001 /%
#137
b1000111111101011111000010 /%
#138
b1000111111101011111000011 /%
#139
b1000111111101011111000100 /%
#140
b1000111111101011111000101 /%
#141
b1000111111101011111000110 /%
#142
b1000111111101011111000111 /%
#143
b1000111111101011111001000 /%
#144
b1000111111101011111001001 /%
#145
b1000111111101011111001010 /%
#146
b1000111111101011111001011 /%
#147
b1000111111101011111001100 /%
#148
b1000111111101011111001101 /%
#149
b1000111111101011111001110 /%
#150
b1000111111101011111001111 /%
#151
b1000111111101011111010000 /%
#152
b1000111111101011111010001 /%
#153
b1000111111101011111010010 /%
#154
b1000111111101011111010011 /%
#155
b1000111111101011111010100 /%
#156
b1000111111101011111010101 /%
#157
b1000111111101011111010110 /%
#158
b1000111111101011111010111 /%
#159
b1000111111101011111011000 /%
#160
b1000111111101011111011001 /%
#161
b1000111111101011111011010 /%
#162
b1000111111101011111011011 /%
#163
b1000111111101011111011100 /%
#164
b1000111111101011111011101 /%
#165
b1000111111101011111011110 /%
#166
b1000111111101011111011111 /%
#167
b1000111111101011111100000 /%
#168
b1000111111101011111100001 /%
#169
b1000111111101011111100010 /%
#170
b1000111111101011111100011 /%
#171
b1000111111101011111100100 /%
#172
b1000111111101011111100101 /%
#173
b1000111111101011111100110 /%
#174
b1000111111101011111100111 /%
#175
b1000111111101011111101000 /%
#176
b1000111111101011111101001 /%
#177
b1000111111101011111101010 /%
#178
b1000111111101011111101011 /%
#179
b1000111111101011111101100 /%
#180
b1000111111101011111101101 /%
#181
b1000111111101011111101110 /%
#182
b1000111111101011111101111 /%
#183
b1000111111101011111110000 /%
#184
b1000111111101011111110001 /%
#185
b1000111111101011111110010 /%
#186
b1000111111101011111110011 /%
#187
b1000111111101011111110100 /%
#188
b1000111111101011111110101 /%
#189
b1000111111101011111110110 /%
#190
b1000111111101011111110111 /%
#191
b1000111111101011111111000 /%
#192
b1000111111101011111111001 /%
#193
b1000111111101011111111010 /%
#194
b1000111111101011111111011 /%
#195
b1000111111101011111111100 /%
#196
b1000111111101011111111101 /%
#197
b1000111111101011111111110 /%
#198
b1000111111101011111111111 /%
#199
b1000111111101100000000000 /%
#200
b1000111111101100000000001 /%
#201
b1000111111101100000000010 /%
#202
b1000111111101100000000011 /%
#203
b1000111111101100000000100 /%
#204
b1000111111101100000000101 /%
#205
b1000111111101100000000110 /%
#206
b1000111111101100000000111 /%
#207
b1000111111101100000001000 /%
#208
b1000111111101100000001001 /%
#209
b1000111111101100000001010 /%
#210
b1000111111101100000001011 /%
#211
b1000111111101100000001100 /%
#212
b1000111111101100000001101 /%
#213
b1000111111101100000001110 /%
#214
b1000111111101100000001111 /%
#215
b1000111111101100000010000 /%
#216
b1000111111101100000010001 /%
#217
b1000111111101100000010010 /%
#218
b1000111111101100000010011 /%
#219
b1000111111101100000010100 /%
#220
b1000111111101100000010101 /%
#221
b1000111111101100000010110 /%
#222
b1000111111101100000010111 /%
#223
b1000111111101100000011000 /%
#224
b1000111111101100000011001 /%
#225
b1000111111101100000011010 /%
#226
b1000111111101100000011011 /%
#227
b1000111111101100000011100 /%
#228
b1000111111101100000011101 /%
#229
b1000111111101100000011110 /%
#230
b1000111111101100000011111 /%
#231
b1000111111101100000100000 /%
#232
b1000111111101100000100001 /%
#233
b1000111111101100000100010 /%
#234
b1000111111101100000100011 /%
#235
b1000111111101100000100100 /%
#236
b1000111111101100000100101 /%
#237
b1000111111101100000100110 /%
#238
b1000111111101100000100111 /%
#239
b1000111111101100000101000 /%
#240
b1000111111101100000101001 /%
#241
b1000111111101100000101010 /%
#242
b1000111111101100000101011 /%
#243
b1000111111101100000101100 /%
#244
b1000111111101100000101101 /%
#245
b1000111111101100000101110 /%
#246
b1000111111101100000101111 /%
#247
b1000111111101100000110000 /%
#248
b1000111111101100000110001 /%
#249
b1000111111101100000110010 /%
#250
b1000111111101100000110011 /%
#251
b1000111111101100000110100 /%
#252
b1000111111101100000110101 /%
#253
b1000111111101100000110110 /%
#254
b1000111111101100000110111 /%
#255
b1000111111101100000111000 /%
#256
b1000111111101100000111001 /%
#257
b1000111111101100000111010 /%
#258
b1000111111101100000111011 /%
#259
b1000111111101100000111100 /%
#260
b1000111111101100000111101 /%
#261
b1000111111101100000111110 /%
#262
b1000111111101100000111111 /%
#263
b1000111111101100001000000 /%
#264
b1000111111101100001000001 /%
#265
b1000111111101100001000010 /%
#266
b1000111111101100001000011 /%
#267
b1000111111101100001000100 /%
#268
b1000111111101100001000101 /%
#269
b1000111111101100001000110 /%
#270
b1000111111101100001000111 /%
#271
b1000111111101100001001000 /%
#272
b1000111111101100001001001 /%
#273
b1000111111101100001001010 /%
#274
b1000111111101100001001011 /%
#275
b1000111111101100001001100 /%
#276
b1000111111101100001001101 /%
#277
b1000111111101100001001110 /%
#278
b1000111111101100001001111 /%
#279
b1000111111101100001010000 /%
#280
b1000111111101100001010001 /%
#281
b1000111111101100001010010 /%
#282
b1000111111101100001010011 /%
#283
b1000111111101100001010100 /%
#284
b1000111111101100001010101 /%
#285
b1000111111101100001010110 /%
#286
b1000111111101100001010111 /%
#287
b1000111111101100001011000 /%
#288
b1000111111101100001011001 /%
#289
b1000111111101100001011010 /%
#290
b1000111111101100001011011 /%
#291
b1000111111101100001011100 /%
#292
b1000111111101100001011101 /%
#293
b1000111111101100001011110 /%
#294
b1000111111101100001011111 /%
#295
b1000111111101100001100000 /%
#296
b1000111111101100001100001 /%
#297
b1000111111101100001100010 /%
#298
b1000111111101100001100011 /%
#299
b1000111111101100001100100 /%
#300
b1000111111101100001100101 /%
#301
b1000111111101100001100110 /%
#302
b1000111111101100001100111 /%
#303
b1000111111101100001101000 /%
#304
b1000111111101100001101001 /%
#305
b1000111111101100001101010 /%
#306
b1000111111101100001101011 /%
#307
b1000111111101100001101100 /%
#308
b1000111111101100001101101 /%
#309
b1000111111101100001101110 /%
#310
b1000111111101100001101111 /%
#311
b1000111111101100001110000 /%
#312
b1000111111101100001110001 /%
#313
b1000111111101100001110010 /%
#314
b1000111111101100001110011 /%
#315
b1000111111101100001110100 /%
#316
b1000111111101100001110101 /%
#317
b1000111111101100001110110 /%
#318
b1000111111101100001110111 /%
#319
b1000111111101100001111000 /%
#320
b1000111111101100001111001 /%
#321
b1000111111101100001111010 /%
#322
b1000111111101100001111011 /%
#323
b1000111111101100001111100 /%
#324
b1000111111101100001111101 /%
#325
b1000111111101100001111110 /%
#326
b1000111111101100001111111 /%
#327
b1000111111101100010000000 /%
#328
b1000111111101100010000001 /%
#329
b1000111111101100010000010 /%
#330
b1000111111101100010000011 /%
#331
b1000111111101100010000100 /%
#332
b1000111111101100010000101 /%
#333
b1000111111101100010000110 /%
#334
b1000111111101100010000111 /%
#335
b1000111111101100010001000 /%
#336
b1000111111101100010001001 /%
#337
b1000111111101100010001010 /%
#338
b1000111111101100010001011 /%
#339
b1000111111101100010001100 /%
#340
b1000111111101100010001101 /%
#341
b1000111111101100010001110 /%
#342
b1000111111101100010001111 /%
#343
b1000111111101100010010000 /%
#344
b1000111111101100010010001 /%
#345
b1000111111101100010010010 /%
#346
b1000111111101100010010011 /%
#347
b1000111111101100010010100 /%
#348
b1000111111101100010010101 /%
#349
b1000111111101100010010110 /%
#350
b1000111111101100010010111 /%
#351
b1000111111101100010011000 /%
#352
b1000111111101100010011001 /%
#353
b1000111111101100010011010 /%
#354
b1000111111101100010011011 /%
#355
b1000111111101100010011100 /%
#356
b1000111111101100010011101 /%
#357
b1000111111101100010011110 /%
#358
b1000111111101100010011111 /%
#359
b1000111111101100010100000 /%
#360
b1000111111101100010100001 /%
#361
b1000111111101100010100010 /%
#362
b1000111111101100010100011 /%
#363
b1000111111101100010100100 /%
#364
b1000111111101100010100101 /%
#365
b1000111111101100010100110 /%
#366
b1000111111101100010100111 /%
#367
b1000111111101100010101000 /%
#368
b1000111111101100010101001 /%
#369
b1000111111101100010101010 /%
#370
b1000111111101100010101011 /%
#371
b1000111111101100010101100 /%
#372
b1000111111101100010101101 /%
#373
b1000111111101100010101110 /%
#374
b1000111111101100010101111 /%
#375
b1000111111101100010110000 /%
#376
b1000111111101100010110001 /%
#377
b1000111111101100010110010 /%
#378
b1000111111101100010110011 /%
#379
b1000111111101100010110100 /%
#380
b1000111111101100010110101 /%
#381
b1000111111101100010110110 /%
#382
b1000111111101100010110111 /%
#383
b1000111111101100010111000 /%
#384
b1000111111101100010111001 /%
#385
b1000111111101100010111010 /%
#386
b1000111111101100010111011 /%
#387
b1000111111101100010111100 /%
#388
b1000111111101100010111101 /%
#389
b1000111111101100010111110 /%
#390
b1000111111101100010111111 /%
#391
b1000111111101100011000000 /%
#392
b1000111111101100011000001 /%
#393
b1000111111101100011000010 /%
#394
b1000111111101100011000011 /%
#395
b1000111111101100011000100 /%
#396
b1000111111101100011000101 /%
#397
b1000111111101100011000110 /%
#398
b1000111111101100011000111 /%
#399
b1000111111101100011001000 /%
#400
b1000111111101100011001001 /%
#401
b1000111111101100011001010 /%
#402
b1000111111101100011001011 /%
#403
b1000111111101100011001100 /%
#404
b1000111111101100011001101 /%
#405
b1000111111101100011001110 /%
#406
b1000111111101100011001111 /%
#407
b1000111111101100011010000 /%
#408
b1000111111101100011010001 /%
#409
b1000111111101100011010010 /%
#410
b1000111111101100011010011 /%
#411
b1000111111101100011010100 /%
#412
b1000111111101100011010101 /%
#413
b1000111111101100011010110 /%
#414
b1000111111101100011010111 /%
#415
b1000111111101100011011000 /%
#416
b1000111111101100011011001 /%
#417
b1000111111101100011011010 /%
#418
b1000111111101100011011011 /%
#419
b1000111111101100011011100 /%
#420
b1000111111101100011011101 /%
#421
b1000111111101100011011110 /%
#422
b1000111111101100011011111 /%
#423
b1000111111101100011100000 /%
#424
b1000111111101100011100001 /%
#425
b1000111111101100011100010 /%
#426
b1000111111101100011100011 /%
#427
b1000111111101100011100100 /%
#428
b1000111111101100011100101 /%
#429
b1000111111101100011100110 /%
#430
b1000111111101100011100111 /%
#431
b1000111111101100011101000 /%
#432
b1000111111101100011101001 /%
#433
b1000111111101100011101010 /%
#434
b1000111111101100011101011 /%
#435
b1000111111101100011101100 /%
#436
b1000111111101100011101101 /%
#437
b1000111111101100011101110 /%
#438
b1000111111101100011101111 /%
#439
b1000111111101100011110000 /%
#440
b1000111111101100011110001 /%
#441
b1000111111101100011110010 /%
#442
b1000111111101100011110011 /%
#443
b1000111111101100011110100 /%
#444
b1000111111101100011110101 /%
#445
b1000111111101100011110110 /%
#446
b1000111111101100011110111 /%
#447
b1000111111101100011111000 /%
#448
b1000111111101100011111001 /%
#449
b1000111111101100011111010 /%
#450
b1000111111101100011111011 /%
#451
b1000111111101100011111100 /%
#452
b1000111111101100011111101 /%
#453
b1000111111101100011111110 /%
#454
b1000111111101100011111111 /%
#455
b1000111111101100100000000 /%
#456
b1000111111101100100000001 /%
#457
b1000111111101100100000010 /%
#458
b1000111111101100100000011 /%
#459
b1000111111101100100000100 /%
#460
b1000111111101100100000101 /%
#461
b1000111111101100100000110 /%
#462
b1000111111101100100000111 /%
#463
b1000111111101100100001000 /%
#464
b1000111111101100100001001 /%
#465
b1000111111101100100001010 /%
#466
b1000111111101100100001011 /%
#467
b1000111111101100100001100 /%
#468
b1000111111101100100001101 /%
#469
b1000111111101100100001110 /%
#470
b1000111111101100100001111 /%
#471
b1000111111101100100010000 /%
#472
b1000111111101100100010001 /%
#473
b1000111111101100100010010 /%
#474
b1000111111101100100010011 /%
#475
b1000111111101100100010100 /%
#476
b1000111111101100100010101 /%
#477
b1000111111101100100010110 /%
#478
b1000111111101100100010111 /%
#479
b1000111111101100100011000 /%
#480
b1000111111101100100011001 /%
#481
b1000111111101100100011010 /%
#482
b1000111111101100100011011 /%
#483
b1000111111101100100011100 /%
#484
b1000111111101100100011101 /%
#485
b1000111111101100100011110 /%
#486
b1000111111101100100011111 /%
#487
b1000111111101100100100000 /%
#488
b1000111111101100100100001 /%
#489
b1000111111101100100100010 /%
#490
b1000111111101100100100011 /%
#491
b1000111111101100100100100 /%
#492
b1000111111101100100100101 /%
#493
b1000111111101100100100110 /%
#494
b1000111111101100100100111 /%
#495
b1000111111101100100101000 /%
#496
b1000111111101100100101001 /%
#497
b1000111111101100100101010 /%
#498
b1000111111101100100101011 /%
#499
b1000111111101100100101100 /%
#500
b1000111111101100100101101 /%
#501
b1000111111101100100101110 /%
#502
b1000111111101100100101111 /%
#503
b1000111111101100100110000 /%
#504
b1000111111101100100110001 /%
#505
b1000111111101100100110010 /%
#506
b1000111111101100100110011 /%
#507
b1000111111101100100110100 /%
#508
b1000111111101100100110101 /%
#509
b1000111111101100100110110 /%
#510
b1000111111101100100110111 /%
#511
b1000111111101100100111000 /%
#512
b1000111111101100100111001 /%
1V%
#513
b1000111111101100100111010 /%
#514
b1000111111101100100111011 /%
#515
b1000111111101100100111100 /%
#516
b1000111111101100100111101 /%
#517
b1000111111101100100111110 /%
#518
b1000111111101100100111111 /%
#519
b1000111111101100101000000 /%
#520
b1000111111101100101000001 /%
#521
b1000111111101100101000010 /%
#522
b1000111111101100101000011 /%
#523
b1000111111101100101000100 /%
#524
b1000111111101100101000101 /%
#525
b1000111111101100101000110 /%
#526
b1000111111101100101000111 /%
#527
b1000111111101100101001000 /%
#528
b1000111111101100101001001 /%
#529
b1000111111101100101001010 /%
#530
b1000111111101100101001011 /%
#531
b1000111111101100101001100 /%
#532
b1000111111101100101001101 /%
#533
b1000111111101100101001110 /%
#534
b1000111111101100101001111 /%
#535
b1000111111101100101010000 /%
#536
b1000111111101100101010001 /%
#537
b1000111111101100101010010 /%
#538
b1000111111101100101010011 /%
#539
b1000111111101100101010100 /%
#540
b1000111111101100101010101 /%
#541
b1000111111101100101010110 /%
#542
b1000111111101100101010111 /%
#543
b1000111111101100101011000 /%
#544
b1000111111101100101011001 /%
#545
b1000111111101100101011010 /%
#546
b1000111111101100101011011 /%
#547
b1000111111101100101011100 /%
#548
b1000111111101100101011101 /%
#549
b1000111111101100101011110 /%
#550
b1000111111101100101011111 /%
#551
b1000111111101100101100000 /%
#552
b1000111111101100101100001 /%
#553
b1000111111101100101100010 /%
#554
b1000111111101100101100011 /%
#555
b1000111111101100101100100 /%
#556
b1000111111101100101100101 /%
#557
b1000111111101100101100110 /%
#558
b1000111111101100101100111 /%
#559
b1000111111101100101101000 /%
#560
b1000111111101100101101001 /%
#561
b1000111111101100101101010 /%
#562
b1000111111101100101101011 /%
#563
b1000111111101100101101100 /%
#564
b1000111111101100101101101 /%
#565
b1000111111101100101101110 /%
#566
b1000111111101100101101111 /%
#567
b1000111111101100101110000 /%
#568
b1000111111101100101110001 /%
#569
b1000111111101100101110010 /%
#570
b1000111111101100101110011 /%
#571
b1000111111101100101110100 /%
#572
b1000111111101100101110101 /%
#573
b1000111111101100101110110 /%
#574
b1000111111101100101110111 /%
#575
b1000111111101100101111000 /%
#576
b1000111111101100101111001 /%
#577
b1000111111101100101111010 /%
#578
b1000111111101100101111011 /%
#579
b1000111111101100101111100 /%
#580
b1000111111101100101111101 /%
#581
b1000111111101100101111110 /%
#582
b1000111111101100101111111 /%
#583
b1000111111101100110000000 /%
#584
b1000111111101100110000001 /%
#585
b1000111111101100110000010 /%
#586
b1000111111101100110000011 /%
#587
b1000111111101100110000100 /%
#588
b1000111111101100110000101 /%
#589
b1000111111101100110000110 /%
#590
b1000111111101100110000111 /%
#591
b1000111111101100110001000 /%
#592
b1000111111101100110001001 /%
#593
b1000111111101100110001010 /%
#594
b1000111111101100110001011 /%
#595
b1000111111101100110001100 /%
#596
b1000111111101100110001101 /%
#597
b1000111111101100110001110 /%
#598
b1000111111101100110001111 /%
#599
b1000111111101100110010000 /%
#600
b1000111111101100110010001 /%
#601
b1000111111101100110010010 /%
#602
b1000111111101100110010011 /%
#603
b1000111111101100110010100 /%
#604
b1000111111101100110010101 /%
#605
b1000111111101100110010110 /%
#606
b1000111111101100110010111 /%
#607
b1000111111101100110011000 /%
#608
b1000111111101100110011001 /%
#609
b1000111111101100110011010 /%
#610
b1000111111101100110011011 /%
#611
b1000111111101100110011100 /%
#612
b1000111111101100110011101 /%
#613
b1000111111101100110011110 /%
#614
b1000111111101100110011111 /%
#615
b1000111111101100110100000 /%
#616
b1000111111101100110100001 /%
#617
b1000111111101100110100010 /%
#618
b1000111111101100110100011 /%
#619
b1000111111101100110100100 /%
#620
b1000111111101100110100101 /%
#621
b1000111111101100110100110 /%
#622
b1000111111101100110100111 /%
#623
b1000111111101100110101000 /%
#624
b1000111111101100110101001 /%
#625
b1000111111101100110101010 /%
#626
b1000111111101100110101011 /%
#627
b1000111111101100110101100 /%
#628
b1000111111101100110101101 /%
#629
b1000111111101100110101110 /%
#630
b1000111111101100110101111 /%
#631
b1000111111101100110110000 /%
#632
b1000111111101100110110001 /%
#633
b1000111111101100110110010 /%
#634
b1000111111101100110110011 /%
#635
b1000111111101100110110100 /%
#636
b1000111111101100110110101 /%
#637
b1000111111101100110110110 /%
#638
b1000111111101100110110111 /%
#639
b1000111111101100110111000 /%
#640
b1000111111101100110111001 /%
#641
b1000111111101100110111010 /%
#642
b1000111111101100110111011 /%
#643
b1000111111101100110111100 /%
#644
b1000111111101100110111101 /%
#645
b1000111111101100110111110 /%
#646
b1000111111101100110111111 /%
#647
b1000111111101100111000000 /%
#648
b1000111111101100111000001 /%
#649
b1000111111101100111000010 /%
#650
b1000111111101100111000011 /%
#651
b1000111111101100111000100 /%
#652
b1000111111101100111000101 /%
#653
b1000111111101100111000110 /%
#654
b1000111111101100111000111 /%
#655
b1000111111101100111001000 /%
#656
b1000111111101100111001001 /%
#657
b1000111111101100111001010 /%
#658
b1000111111101100111001011 /%
#659
b1000111111101100111001100 /%
#660
b1000111111101100111001101 /%
#661
b1000111111101100111001110 /%
#662
b1000111111101100111001111 /%
#663
b1000111111101100111010000 /%
#664
b1000111111101100111010001 /%
#665
b1000111111101100111010010 /%
#666
b1000111111101100111010011 /%
#667
b1000111111101100111010100 /%
#668
b1000111111101100111010101 /%
#669
b1000111111101100111010110 /%
#670
b1000111111101100111010111 /%
#671
b1000111111101100111011000 /%
#672
b1000111111101100111011001 /%
#673
b1000111111101100111011010 /%
#674
b1000111111101100111011011 /%
#675
b1000111111101100111011100 /%
#676
b1000111111101100111011101 /%
#677
b1000111111101100111011110 /%
#678
b1000111111101100111011111 /%
#679
b1000111111101100111100000 /%
#680
b1000111111101100111100001 /%
#681
b1000111111101100111100010 /%
#682
b1000111111101100111100011 /%
#683
b1000111111101100111100100 /%
#684
b1000111111101100111100101 /%
#685
b1000111111101100111100110 /%
#686
b1000111111101100111100111 /%
#687
b1000111111101100111101000 /%
#688
b1000111111101100111101001 /%
#689
b1000111111101100111101010 /%
#690
b1000111111101100111101011 /%
#691
b1000111111101100111101100 /%
#692
b1000111111101100111101101 /%
#693
b1000111111101100111101110 /%
#694
b1000111111101100111101111 /%
#695
b1000111111101100111110000 /%
#696
b1000111111101100111110001 /%
#697
b1000111111101100111110010 /%
#698
b1000111111101100111110011 /%
#699
b1000111111101100111110100 /%
#700
b1000111111101100111110101 /%
#701
b1000111111101100111110110 /%
#702
b1000111111101100111110111 /%
#703
b1000111111101100111111000 /%
#704
b1000111111101100111111001 /%
#705
b1000111111101100111111010 /%
#706
b1000111111101100111111011 /%
#707
b1000111111101100111111100 /%
#708
b1000111111101100111111101 /%
#709
b1000111111101100111111110 /%
#710
b1000111111101100111111111 /%
#711
b1000111111101101000000000 /%
#712
b1000111111101101000000001 /%
#713
b1000111111101101000000010 /%
#714
b1000111111101101000000011 /%
#715
b1000111111101101000000100 /%
#716
b1000111111101101000000101 /%
#717
b1000111111101101000000110 /%
#718
b1000111111101101000000111 /%
#719
b1000111111101101000001000 /%
#720
b1000111111101101000001001 /%
#721
b1000111111101101000001010 /%
#722
b1000111111101101000001011 /%
#723
b1000111111101101000001100 /%
#724
b1000111111101101000001101 /%
#725
b1000111111101101000001110 /%
#726
b1000111111101101000001111 /%
#727
b1000111111101101000010000 /%
#728
b1000111111101101000010001 /%
#729
b1000111111101101000010010 /%
#730
b1000111111101101000010011 /%
#731
b1000111111101101000010100 /%
#732
b1000111111101101000010101 /%
#733
b1000111111101101000010110 /%
#734
b1000111111101101000010111 /%
#735
b1000111111101101000011000 /%
#736
b1000111111101101000011001 /%
#737
b1000111111101101000011010 /%
#738
b1000111111101101000011011 /%
#739
b1000111111101101000011100 /%
#740
b1000111111101101000011101 /%
#741
b1000111111101101000011110 /%
#742
b1000111111101101000011111 /%
#743
b1000111111101101000100000 /%
#744
b1000111111101101000100001 /%
#745
b1000111111101101000100010 /%
#746
b1000111111101101000100011 /%
#747
b1000111111101101000100100 /%
#748
b1000111111101101000100101 /%
#749
b1000111111101101000100110 /%
#750
b1000111111101101000100111 /%
#751
b1000111111101101000101000 /%
#752
b1000111111101101000101001 /%
#753
b1000111111101101000101010 /%
#754
b1000111111101101000101011 /%
#755
b1000111111101101000101100 /%
#756
b1000111111101101000101101 /%
#757
b1000111111101101000101110 /%
#758
b1000111111101101000101111 /%
#759
b1000111111101101000110000 /%
#760
b1000111111101101000110001 /%
#761
b1000111111101101000110010 /%
#762
b1000111111101101000110011 /%
#763
b1000111111101101000110100 /%
#764
b1000111111101101000110101 /%
#765
b1000111111101101000110110 /%
#766
b1000111111101101000110111 /%
#767
b1000111111101101000111000 /%
#768
b1000111111101101000111001 /%
#769
b1000111111101101000111010 /%
#770
b1000111111101101000111011 /%
#771
b1000111111101101000111100 /%
#772
b1000111111101101000111101 /%
#773
b1000111111101101000111110 /%
#774
b1000111111101101000111111 /%
#775
b1000111111101101001000000 /%
#776
b1000111111101101001000001 /%
#777
b1000111111101101001000010 /%
#778
b1000111111101101001000011 /%
#779
b1000111111101101001000100 /%
#780
b1000111111101101001000101 /%
#781
b1000111111101101001000110 /%
#782
b1000111111101101001000111 /%
#783
b1000111111101101001001000 /%
#784
b1000111111101101001001001 /%
#785
b1000111111101101001001010 /%
#786
b1000111111101101001001011 /%
#787
b1000111111101101001001100 /%
#788
b1000111111101101001001101 /%
#789
b1000111111101101001001110 /%
#790
b1000111111101101001001111 /%
#791
b1000111111101101001010000 /%
#792
b1000111111101101001010001 /%
#793
b1000111111101101001010010 /%
#794
b1000111111101101001010011 /%
#795
b1000111111101101001010100 /%
#796
b1000111111101101001010101 /%
#797
b1000111111101101001010110 /%
#798
b1000111111101101001010111 /%
#799
b1000111111101101001011000 /%
#800
b1000111111101101001011001 /%
#801
b1000111111101101001011010 /%
#802
b1000111111101101001011011 /%
#803
b1000111111101101001011100 /%
#804
b1000111111101101001011101 /%
#805
b1000111111101101001011110 /%
#806
b1000111111101101001011111 /%
#807
b1000111111101101001100000 /%
#808
b1000111111101101001100001 /%
#809
b1000111111101101001100010 /%
#810
b1000111111101101001100011 /%
#811
b1000111111101101001100100 /%
#812
b1000111111101101001100101 /%
#813
b1000111111101101001100110 /%
#814
b1000111111101101001100111 /%
#815
b1000111111101101001101000 /%
#816
b1000111111101101001101001 /%
#817
b1000111111101101001101010 /%
#818
b1000111111101101001101011 /%
